{
  "name": "@romerramos/testing_npm_deploy",
  "version": "0.0.3",
  "description": "Testing npm deploy",
  "main": "index.js",
  "scripts": {
    "test": "echo \"Error: no test specified\" && exit 1"
  },
  "author": "",
  "license": "ISC"
}
